7 Adding cohorts to the CDM – Tidy R programming with databases: applications with the OMOP common data model
…
getCandidateCodes(cdm = cdm, 
                  keywords = c("coronavirus","covid"),
                  domains = "condition",
                  includeDescendants = TRUE)

Limiting to domains of interest
Getting concepts to include
Adding descendants
Search completed. Finishing up.
✔ 37 candidate concepts identified

Time taken: 0 minutes and 1 seconds

# A tibble: 37 × 6
   concept_id found_from   concept_name domain_id vocabulary_id standard_concept
        <int> <chr>        <chr>        <chr>     <chr>         <chr>           
 1    3656668 From initia… Conjunctivi… Condition SNOMED        S               
 2   37310254 From initia… Otitis medi… Condition SNOMED        S               
 3   37310287 From initia… Myocarditis… Condition SNOMED        S               
 4   37310283 From initia… Gastroenter… Condition SNOMED        S               
 5     705076 From initia… Post-acute … Condition OMOP Extensi… S               
 6    1340294 From initia… Exacerbatio… Condition OMOP Extensi… S               
 7    3661631 From initia… Lymphocytop… Condition SNOMED        S               
 8    3661748 From initia… Acute kidne… Condition SNOMED        S               
 9    3655976 From initia… Acute hypox… Condition SNOMED        S               
10    3655977 From initia… Rhabdomyoly… Condition SNOMED        S               
# ℹ 27 more rows
…
