4 Building analytic pipelines for a data model – Tidy R programming with databases: applications with the OMOP common data model
…
lahman$Batting |> 
  left_join(players_with_college,
            by = join_by(playerID)) |> 
  summarise(home_runs = sum(H, na.rm = TRUE), 
                        .by = c(schoolID, birthYear)) |> 
  collect()

# A tibble: 6,206 × 3
   schoolID   birthYear home_runs
   <chr>          <int>     <dbl>
 1 rice            1981         0
 2 ucsd            1968         3
 3 virginia        1987        27
 4 cacerri         1971         3
 5 usc             1947        11
 6 lsu             1927      1832
 7 wake            1915        72
 8 pepperdine      1969         1
 9 lsu             1978         2
10 miamidade       1982         0
# ℹ 6,196 more rows

lahman$Pitching |> 
  left_join(players_with_college,
            by = join_by(playerID)) |> 
  summarise(strike_outs = sum(SO, na.rm = TRUE), 
                        .by = c(schoolID, birthYear))|> 
  collect()

# A tibble: 3,662 × 3
   schoolID   birthYear strike_outs
   <chr>          <int>       <dbl>
 1 illinoisst      1981         205
 2 lehigh          1901           1
 3 tamukvill       1978         409
 4 byu             1961        1030
 5 kentucky        1985          91
 6 txsjjcn         1983         571
 7 stanford        1961           0
 8 bethanywv       1922           2
 9 tulane          1968          59
10 nmnmjco         1972         232
# ℹ 3,652 more rows
…
players_with_college |> 
  show_query()

<SQL>
SELECT *
FROM dbplyr_bAHCiCSwlr

lahman$Batting |> 
  left_join(players_with_college,
            by = join_by(playerID)) |> 
  summarise(home_runs = sum(H, na.rm = TRUE), 
                        .by = c(schoolID, birthYear)) |> 
  collect()

# A tibble: 6,206 × 3
   schoolID   birthYear home_runs
   <chr>          <int>     <dbl>
 1 vermont         1869        38
 2 michigan        1967         2
 3 nmstate         1968         0
 4 cacerri         1971         3
 5 chicago         1874         2
 6 byu             1961        28
 7 pepperdine      1969         1
 8 lsu             1978         2
 9 miamidade       1982         0
10 stanford        1961      1611
# ℹ 6,196 more rows

lahman$Pitching |> 
  left_join(players_with_college,
            by = join_by(playerID)) |> 
  summarise(strike_outs = sum(SO, na.rm = TRUE), 
                        .by = c(schoolID, birthYear))|> 
  collect()

# A tibble: 3,662 × 3
   schoolID   birthYear strike_outs
   <chr>          <int>       <dbl>
 1 vermont         1869         161
 2 michigan        1967         888
 3 nmstate         1968          98
 4 cacerri         1971         327
 5 byu             1961        1030
 6 pepperdine      1969           4
 7 lsu             1978         162
 8 miamidade       1982          56
 9 stanford        1961           0
10 incante         1893         526
# ℹ 3,652 more rows
…
