4 Building analytic pipelines for a data model – Tidy R programming with the OMOP Common Data Model
…
lahman$Batting |> 
  left_join(
    players_with_college,
    by = "playerID"
  ) |> 
  group_by(schoolID, birthYear) |>
  summarise(home_runs = sum(H, na.rm = TRUE), .groups = "drop") |> 
  collect()

# A tibble: 6,205 × 3
   schoolID   birthYear home_runs
   <chr>          <int>     <dbl>
 1 gamiddl         1972         2
 2 illinoisst      1981         1
 3 lehigh          1901         1
 4 tamukvill       1978         0
 5 chicago         1874         2
 6 capalom         1963        15
 7 hawaiipac       1971       299
 8 bostonuniv      1929       135
 9 byu             1961        28
10 kentucky        1985         1
# ℹ 6,195 more rows

lahman$Pitching |> 
  left_join(
    players_with_college, 
    by = "playerID"
  ) |> 
  group_by(schoolID, birthYear) |>
  summarise(strike_outs = sum(SO, na.rm = TRUE), .groups = "drop")|> 
  collect()

# A tibble: 3,663 × 3
   schoolID   birthYear strike_outs
   <chr>          <int>       <dbl>
 1 pennst          1981         340
 2 cacerri         1971         327
 3 usc             1947         275
 4 pepperdine      1969           4
 5 lsu             1978         162
 6 miamidade       1982          56
 7 upperiowa       1918          11
 8 jamesmad        1966           4
 9 flinternat      1971         133
10 ucla            1984         323
# ℹ 3,653 more rows
…
players_with_college |> 
  show_query()

<SQL>
SELECT *
FROM dbplyr_q4u2R5KrRY

lahman$Batting |> 
  left_join(players_with_college, by = "playerID") |> 
  group_by(schoolID, birthYear) |>
  summarise(home_runs = sum(H, na.rm = TRUE), .groups = "drop") |> 
  collect()

# A tibble: 6,205 × 3
   schoolID   birthYear home_runs
   <chr>          <int>     <dbl>
 1 vermont         1869        38
 2 michigan        1967         2
 3 nmstate         1968         0
 4 cacerri         1971         3
 5 chicago         1874         2
 6 byu             1961        28
 7 pepperdine      1969         1
 8 lsu             1978         2
 9 miamidade       1982         0
10 stanford        1961      1611
# ℹ 6,195 more rows

lahman$Pitching |> 
  left_join(players_with_college, by = "playerID") |> 
  group_by(schoolID, birthYear) |>
  summarise(strike_outs = sum(SO, na.rm = TRUE), .groups = "drop") |> 
  collect()

# A tibble: 3,663 × 3
   schoolID  birthYear strike_outs
   <chr>         <int>       <dbl>
 1 longbeach      1968         273
 2 elon           1921          13
 3 lehigh         1901           1
 4 usc            1947         275
 5 tamukvill      1978         409
 6 stanford       1972         218
 7 upenn          1964          14
 8 arkansas       1962         537
 9 kentucky       1985          91
10 txsjjcn        1983         571
# ℹ 3,653 more rows
…
