Tidy R programming with the OMOP common data model - 5 Adding cohorts to the CDM
…
getCandidateCodes(cdm = cdm, 
                  keywords = c("coronavirus","covid"),
                  domains = "condition",
                  includeDescendants = TRUE)

Limiting to domains of interest
Getting concepts to include
Adding descendants
Search completed. Finishing up.
✔ 37 candidate concepts identified

Time taken: 0 minutes and 2 seconds

# A tibble: 37 × 6
   concept_id found_from   concept_name domain_id vocabulary_id standard_concept
        <int> <chr>        <chr>        <chr>     <chr>         <chr>           
 1     439676 From initia… Coronavirus… Condition SNOMED        S               
 2    3655973 From initia… At increase… Condition SNOMED        S               
 3    3656668 From initia… Conjunctivi… Condition SNOMED        S               
 4   37310254 From initia… Otitis medi… Condition SNOMED        S               
 5   37310284 From initia… Encephalopa… Condition SNOMED        S               
 6     703445 From initia… Low risk ca… Condition SNOMED        S               
 7     756039 From initia… Respiratory… Condition OMOP Extensi… S               
 8    3656669 From initia… Dyspnea cau… Condition SNOMED        S               
 9   37311061 From initia… COVID-19     Condition SNOMED        S               
10   37016927 From initia… Pneumonia c… Condition SNOMED        S               
# ℹ 27 more rows
…
