8 Adding cohorts to the CDM – Tidy R programming with the OMOP Common Data Model
…
Limiting to domains of interest
Getting concepts to include
Adding descendants
Search completed. Finishing up.
✔ 37 candidate concepts identified

Time taken: 0 minutes and 1 seconds

# A tibble: 37 × 6
   concept_id found_from   concept_name domain_id vocabulary_id standard_concept
        <int> <chr>        <chr>        <chr>     <chr>         <chr>           
 1    3656667 From initia… Cardiomyopa… Condition SNOMED        S               
 2    3661885 From initia… Fever cause… Condition SNOMED        S               
 3   37310286 From initia… Infection o… Condition SNOMED        S               
 4     703447 From initia… High risk c… Condition SNOMED        S               
 5    3661406 From initia… Acute respi… Condition SNOMED        S               
 6   37016927 From initia… Pneumonia c… Condition SNOMED        S               
 7    1340294 From initia… Exacerbatio… Condition OMOP Extensi… S               
 8    3661631 From initia… Lymphocytop… Condition SNOMED        S               
 9    3661632 From initia… Thrombocyto… Condition SNOMED        S               
10    3655973 From initia… At increase… Condition SNOMED        S               
# ℹ 27 more rows
…
